<?xml version="1.0" encoding="UTF-8" standalone="no"?>
<!-- Generator: Adobe Illustrator 14.0.0, SVG Export Plug-In . SVG Version: 6.00 Build 43363)  -->

<svg
   version="1.1"
   x="0px"
   y="0px"
   width="592.5px"
   height="357.167px"
   viewBox="0 0 592.5 357.167"
   enable-background="new 0 0 592.5 357.167"
   xml:space="preserve"
   id="svg106"
   sodipodi:docname="git-data-2.svg"
   inkscape:version="1.1.2 (0a00cf5339, 2022-02-04)"
   inkscape:export-filename="/home/raul/Escritorio/git-4-remote.png"
   inkscape:export-xdpi="96"
   inkscape:export-ydpi="96"
   xmlns:inkscape="http://www.inkscape.org/namespaces/inkscape"
   xmlns:sodipodi="http://sodipodi.sourceforge.net/DTD/sodipodi-0.dtd"
   xmlns="http://www.w3.org/2000/svg"
   xmlns:svg="http://www.w3.org/2000/svg"><defs
   id="defs110">
	
	
	
	
	
	
	
	
	
	
	
	
	
	
	
	
	
		
	
		
	
		
	
		

		
			
	
		
		
	
		
		
	</defs><sodipodi:namedview
   id="namedview108"
   pagecolor="#ffffff"
   bordercolor="#666666"
   borderopacity="1.0"
   inkscape:pageshadow="2"
   inkscape:pageopacity="0.0"
   inkscape:pagecheckerboard="0"
   showgrid="false"
   inkscape:zoom="1.094726"
   inkscape:cx="129.71282"
   inkscape:cy="243.43991"
   inkscape:window-width="1846"
   inkscape:window-height="1016"
   inkscape:window-x="0"
   inkscape:window-y="0"
   inkscape:window-maximized="1"
   inkscape:current-layer="svg106"
   showguides="true"
   inkscape:guide-bbox="true"
   inkscape:snap-grids="false"
   inkscape:snap-to-guides="false"><sodipodi:guide
     position="475.39802,5.7858448"
     orientation="0,-1"
     id="guide4954" /><sodipodi:guide
     position="411.45182,367.50174"
     orientation="0,-1"
     id="guide12492" /><sodipodi:guide
     position="306.48963,244.13078"
     orientation="0,-1"
     id="guide29175" /><sodipodi:guide
     position="394.65788,63.918748"
     orientation="0,-1"
     id="guide29177" /></sodipodi:namedview>
<symbol
   id="File"
   viewBox="-14.795 -17.5 29.59 35">
	<g
   id="g4">
		<polygon
   fill="#92ACFC"
   stroke="#000000"
   points="-14.295,17 14.295,17 14.295,-17 -14.295,-17   "
   id="polygon2" />
	</g>
</symbol>
<symbol
   id="Folder_1"
   viewBox="-22.968 -19.101 45.937 38.202">
	<g
   id="g2642_2_"
   transform="translate(-342.85714,-542.94643)">
		<g
   id="shadow_2_"
   transform="matrix(2.262383e-2,0,0,2.086758e-2,387.2653,580.34254)">
			
				<linearGradient
   id="rect6709_1_"
   gradientUnits="userSpaceOnUse"
   x1="-1339.125"
   y1="-907543"
   x2="-1339.125"
   y2="-907512.6875"
   gradientTransform="matrix(0 0 0 0 1369387.75 -1615627.125)">
				<stop
   offset="0"
   style="stop-color:#000000;stop-opacity:0"
   id="stop7" />
				<stop
   offset="0.5"
   style="stop-color:#000000"
   id="stop9" />
				<stop
   offset="1"
   style="stop-color:#000000;stop-opacity:0"
   id="stop11" />
			</linearGradient>
			<polygon
   id="rect6709_2_"
   opacity="0.4021"
   fill="url(#rect6709_1_)"
   enable-background="new    "
   points="-2632.656,-2229.062      -1293.031,-2229.062 -1293.031,-2707.312 -2632.656,-2707.312    " />
			
				<radialGradient
   id="path6711_1_"
   cx="-51483.2812"
   cy="-120072.5"
   r="4.4818"
   gradientTransform="matrix(0 0 0 0 1369388.5 -1615627.125)"
   gradientUnits="userSpaceOnUse">
				<stop
   offset="0"
   style="stop-color:#000000"
   id="stop15" />
				<stop
   offset="1"
   style="stop-color:#000000;stop-opacity:0"
   id="stop17" />
			</radialGradient>
			<path
   id="path6711_2_"
   opacity="0.4021"
   fill="url(#path6711_1_)"
   enable-background="new    "
   d="M-1293.031-2229.062v-478.25     c142.875-0.844,345.406,107.156,345.406,239.125C-947.625-2336.125-1107.156-2229.062-1293.031-2229.062z" />
			
				<radialGradient
   id="path6713_1_"
   cx="-125963.5312"
   cy="-120072.5"
   r="4.4813"
   gradientTransform="matrix(0 0 0 0 1415090.25 -1615627.125)"
   gradientUnits="userSpaceOnUse">
				<stop
   offset="0"
   style="stop-color:#000000"
   id="stop21" />
				<stop
   offset="1"
   style="stop-color:#000000;stop-opacity:0"
   id="stop23" />
			</radialGradient>
			<path
   id="path6713_2_"
   opacity="0.4021"
   fill="url(#path6713_1_)"
   enable-background="new    "
   d="M-2632.656-2229.062v-478.25     c-142.875-0.844-345.406,107.156-345.406,239.125C-2978.062-2336.125-2818.656-2229.062-2632.656-2229.062z" />
		</g>
		<path
   id="back_2_"
   fill="#9B9A9A"
   stroke="#000000"
   stroke-linecap="round"
   stroke-linejoin="round"
   d="M324.068,528.386    c0.021-0.416,0.461-0.834,0.877-0.834h31.36c0.416,0,0.812,0.418,0.789,0.834l-0.938,27.283c-0.021,0.418-0.461,0.834-0.877,0.834    h-13.284c-0.486,0-1.236,0.315-1.403,1.109l-0.612,2.897c-0.154,0.736-0.883,1.039-1.299,1.039h-14.795    c-0.417,0-0.812-0.418-0.79-0.834L324.068,528.386z" />
		<g
   id="front_2_">
			<path
   id="orange_2_"
   fill="#7FA1FF"
   stroke="#4410FF"
   stroke-linejoin="round"
   d="M359.403,527.556     c1.135,0.043,1.949,1.094,2.032,2.316c0.786,11.521,1.647,21.186,1.647,21.186c0.072,0.248-0.166,0.494-0.477,0.494H328.47     l-1.838-21.82c-0.112-0.979-0.463-1.801-1.539-2.18L359.403,527.556z" />
			<path
   id="path323_2_"
   fill="#FFFFFF"
   fill-opacity="0.0893"
   d="M329.447,550.794l-1.158-15.611c0,0,8.238,4.144,18.538,4.144     c10.299,0,15.447,11.471,15.447,11.471L329.447,550.794L329.447,550.794z" />
		</g>
	</g>
</symbol>


<line
   fill="none"
   stroke="#000000"
   stroke-width="1.63121"
   x1="63.642368"
   y1="141.48122"
   x2="63.642368"
   y2="300.30484"
   id="line36" /><line
   fill="none"
   stroke="#000000"
   stroke-width="1.63121"
   x1="190.3932"
   y1="141.48122"
   x2="190.3932"
   y2="300.30484"
   id="line38" /><line
   fill="none"
   stroke="#000000"
   stroke-width="1.63121"
   x1="318.08197"
   y1="141.43916"
   x2="318.08197"
   y2="300.26276"
   id="line40" /><line
   fill="none"
   stroke="#000000"
   stroke-width="1.63121"
   x1="514.64343"
   y1="141.12578"
   x2="514.64343"
   y2="299.9501"
   id="line42" /><rect
   id="Bild2"
   fill="none"
   width="352.86868"
   height="190.01616"
   x="17.812088"
   y="56.62146"
   style="stroke-width:0.927993" /><rect
   id="rect3920"
   width="360.09698"
   height="266.2764"
   x="17.73538"
   y="53.923248"
   style="fill:none;stroke:#000000;stroke-width:1.62902;stroke-miterlimit:4;stroke-dasharray:19.5481, 1.62902;stroke-dashoffset:0;stroke-opacity:1" /><rect
   id="rect4853"
   width="127.50668"
   height="266.31351"
   x="447.25833"
   y="53.922867"
   style="fill:none;stroke:#000000;stroke-width:1.62821;stroke-miterlimit:4;stroke-dasharray:19.5386, 1.62821;stroke-dashoffset:0;stroke-opacity:1" /><text
   xml:space="preserve"
   style="font-style:normal;font-weight:normal;font-size:12.3732px;line-height:1.25;font-family:sans-serif;fill:#000000;fill-opacity:1;stroke:none;stroke-width:0.927993"
   x="508.78088"
   y="81.63118"
   id="text42932"
   transform="scale(1.0117483,0.98838812)"><tspan
     sodipodi:role="line"
     x="508.78088"
     y="81.63118"
     id="tspan42930"
     style="font-style:normal;font-variant:normal;font-weight:normal;font-stretch:normal;font-size:12.3732px;font-family:Arial;-inkscape-font-specification:Arial;text-align:center;text-anchor:middle;stroke-width:0.927993">Remote </tspan><tspan
     sodipodi:role="line"
     x="508.78088"
     y="97.295517"
     style="font-style:normal;font-variant:normal;font-weight:normal;font-stretch:normal;font-size:12.3732px;font-family:Arial;-inkscape-font-specification:Arial;text-align:center;text-anchor:middle;stroke-width:0.927993"
     id="tspan43538">Repository</tspan></text><polygon
   fill="#c822ff"
   stroke="#000000"
   points="65.101,266.484 65.101,273.817 526.743,274.214 526.743,292.353 65.101,291.857 65.101,299.409 48.42,283.169 64.877,266.266 "
   id="polygon81"
   transform="matrix(0.93597875,0,0,0.91721695,19.348207,-19.378539)" /><text
   font-family="CourierNewPS-BoldMT"
   font-size="11.1359px"
   id="text83"
   x="277.99326"
   y="246.01439"
   transform="scale(1.0117483,0.98838812)"
   style="stroke-width:0.927993">pull</text><text
   xml:space="preserve"
   style="font-style:normal;font-weight:normal;font-size:12.3732px;line-height:1.25;font-family:sans-serif;fill:#000000;fill-opacity:1;stroke:none;stroke-width:0.927993"
   x="188.5257"
   y="81.031776"
   id="text18728"
   transform="scale(1.0117483,0.98838812)"><tspan
     sodipodi:role="line"
     id="tspan18726"
     x="188.5257"
     y="81.031776"
     style="font-style:normal;font-variant:normal;font-weight:normal;font-stretch:normal;font-size:12.3732px;font-family:Arial;-inkscape-font-specification:Arial;text-align:center;text-anchor:middle;stroke-width:0.927993">Staging Area</tspan><tspan
     sodipodi:role="line"
     x="188.5257"
     y="96.696106"
     id="tspan18730"
     style="font-style:normal;font-variant:normal;font-weight:normal;font-stretch:normal;font-size:12.3732px;font-family:Arial;-inkscape-font-specification:Arial;text-align:center;text-anchor:middle;stroke-width:0.927993">(Index)</tspan></text><text
   xml:space="preserve"
   style="font-style:normal;font-weight:normal;font-size:12.3732px;line-height:1.25;font-family:sans-serif;fill:#000000;fill-opacity:1;stroke:none;stroke-width:0.927993"
   x="63.305386"
   y="81.992439"
   id="text33370"
   transform="scale(1.0117483,0.98838812)"><tspan
     sodipodi:role="line"
     x="63.305386"
     y="81.992439"
     id="tspan33368"
     style="font-style:normal;font-variant:normal;font-weight:normal;font-stretch:normal;font-size:12.3732px;font-family:Arial;-inkscape-font-specification:Arial;text-align:center;text-anchor:middle;stroke-width:0.927993">Working </tspan><tspan
     sodipodi:role="line"
     x="63.305386"
     y="97.656769"
     style="font-style:normal;font-variant:normal;font-weight:normal;font-stretch:normal;font-size:12.3732px;font-family:Arial;-inkscape-font-specification:Arial;text-align:center;text-anchor:middle;stroke-width:0.927993"
     id="tspan46318">Directory</tspan></text><text
   xml:space="preserve"
   style="font-style:normal;font-weight:normal;font-size:12.3732px;line-height:1.25;font-family:sans-serif;fill:#000000;fill-opacity:1;stroke:none;stroke-width:0.927993"
   x="314.7327"
   y="81.746689"
   id="text40788"
   transform="scale(1.0117483,0.98838812)"><tspan
     sodipodi:role="line"
     x="314.7327"
     y="81.746689"
     id="tspan40786"
     style="font-style:normal;font-variant:normal;font-weight:normal;font-stretch:normal;font-size:12.3732px;font-family:Arial;-inkscape-font-specification:Arial;text-align:center;text-anchor:middle;stroke-width:0.927993">.git </tspan><tspan
     sodipodi:role="line"
     x="314.7327"
     y="97.411026"
     style="font-style:normal;font-variant:normal;font-weight:normal;font-stretch:normal;font-size:12.3732px;font-family:Arial;-inkscape-font-specification:Arial;text-align:center;text-anchor:middle;stroke-width:0.927993"
     id="tspan48740">Directory</tspan></text><text
   xml:space="preserve"
   style="font-style:normal;font-weight:normal;font-size:13.3333px;line-height:1.25;font-family:sans-serif;fill:#000000;fill-opacity:1;stroke:none"
   x="197.70901"
   y="45.660763"
   id="text4960"><tspan
     sodipodi:role="line"
     x="197.70901"
     y="45.660763"
     style="font-style:normal;font-variant:normal;font-weight:bold;font-stretch:normal;font-size:13.3333px;font-family:Arial;-inkscape-font-specification:'Arial Bold';text-align:center;text-anchor:middle"
     id="tspan4958">Your computer</tspan></text><text
   xml:space="preserve"
   style="font-style:normal;font-weight:normal;font-size:13.3333px;line-height:1.25;font-family:sans-serif;fill:#000000;fill-opacity:1;stroke:none"
   x="510.43878"
   y="46.972607"
   id="text11104"><tspan
     sodipodi:role="line"
     x="510.43878"
     y="46.972607"
     style="font-style:normal;font-variant:normal;font-weight:bold;font-stretch:normal;font-size:13.3333px;font-family:Arial;-inkscape-font-specification:'Arial Bold';text-align:center;text-anchor:middle"
     id="tspan11102">Remote Server</tspan></text><g
   id="g91"
   transform="matrix(-0.94034973,0,0,0.91721695,815.26045,-19.378539)"
   style="fill:#00ffff">
		<polygon
   fill="#227cff"
   stroke="#000000"
   points="322.257,219.372 322.257,237.511 510.965,237.419 510.965,244.97 527.645,228.729 510.916,211.226 510.965,212.045 510.965,219.378 "
   id="polygon87"
   style="fill:#00ffff" />
		
	</g><text
   font-family="CourierNewPS-BoldMT"
   font-size="11.1445px"
   id="text16977"
   x="394.60025"
   y="196.38481"
   transform="scale(1.0125318,0.98762331)"
   style="stroke-width:0.928712">fetch</text><g
   id="g29067"
   transform="translate(1.0818243e-5,-47.922893)"><polygon
     fill="#227cff"
     stroke="#000000"
     points="510.916,211.226 510.965,212.045 510.965,219.378 322.257,219.372 322.257,237.511 510.965,237.419 510.965,244.97 527.645,228.729 "
     id="polygon19420"
     transform="matrix(-1.2209721,0,0,0.91712365,708.87294,28.565628)"
     style="fill:#ffcc00" /><text
     font-family="CourierNewPS-BoldMT"
     font-size="11.1359px"
     id="text19424"
     x="188.02954"
     y="244.06525"
     transform="scale(1.0117483,0.98838812)"
     style="stroke-width:0.927993"><tspan
       style="text-align:center;text-anchor:middle"
       id="tspan25111">merge</tspan></text></g><g
   id="g50872"
   transform="matrix(0.06829958,0,0,0.06657322,47.863171,107.09725)"
   style="fill:#ff7f2a"><g
     id="g50815"
     style="fill:#ff7f2a">
	<g
   id="g50813"
   style="fill:#ff7f2a">
		<g
   id="g50811"
   style="fill:#ff7f2a">
			<polygon
   points="410.3,447.2 0,447.2 79.7,157.9 490,157.9 "
   id="polygon50807"
   style="fill:#ff7f2a" />
			<polygon
   points="410.3,90.6 205.3,90.6 184.7,42.8 0,42.8 0,360.9 62.2,134.9 410.3,134.9 "
   id="polygon50809"
   style="fill:#ff7f2a" />
		</g>
	</g>
</g><g
     id="g50817"
     style="fill:#ff7f2a">
</g><g
     id="g50819"
     style="fill:#ff7f2a">
</g><g
     id="g50821"
     style="fill:#ff7f2a">
</g><g
     id="g50823"
     style="fill:#ff7f2a">
</g><g
     id="g50825"
     style="fill:#ff7f2a">
</g><g
     id="g50827"
     style="fill:#ff7f2a">
</g><g
     id="g50829"
     style="fill:#ff7f2a">
</g><g
     id="g50831"
     style="fill:#ff7f2a">
</g><g
     id="g50833"
     style="fill:#ff7f2a">
</g><g
     id="g50835"
     style="fill:#ff7f2a">
</g><g
     id="g50837"
     style="fill:#ff7f2a">
</g><g
     id="g50839"
     style="fill:#ff7f2a">
</g><g
     id="g50841"
     style="fill:#ff7f2a">
</g><g
     id="g50843"
     style="fill:#ff7f2a">
</g><g
     id="g50845"
     style="fill:#ff7f2a">
</g></g><g
   id="g51268"
   transform="matrix(0.57023945,0,0,0.57921928,174.96822,107.30564)"><path
     d="M 52.354,8.51 C 51.196,4.22 42.577,0 27.5,0 12.423,0 3.803,4.22 2.646,8.51 2.562,8.657 2.5,8.818 2.5,9 V 9.5 21 21.5 22 33 33.5 34 46 c 0,0.162 0.043,0.315 0.117,0.451 C 3.798,51.346 14.364,55 27.5,55 40.606,55 51.155,51.361 52.375,46.484 52.455,46.341 52.5,46.176 52.5,46 V 34 33.5 33 22 21.5 21 9.5 9 c 0,-0.182 -0.062,-0.343 -0.146,-0.49 z m -1.933,25.475 c -0.028,0.121 -0.067,0.241 -0.116,0.363 -0.04,0.099 -0.089,0.198 -0.143,0.297 -0.067,0.123 -0.142,0.246 -0.231,0.369 -0.066,0.093 -0.141,0.185 -0.219,0.277 -0.111,0.131 -0.229,0.262 -0.363,0.392 -0.081,0.079 -0.17,0.157 -0.26,0.236 -0.164,0.143 -0.335,0.285 -0.526,0.426 -0.082,0.061 -0.17,0.12 -0.257,0.18 -0.226,0.156 -0.462,0.311 -0.721,0.463 -0.068,0.041 -0.141,0.08 -0.212,0.12 -0.298,0.168 -0.609,0.335 -0.945,0.497 -0.043,0.021 -0.088,0.041 -0.132,0.061 -0.375,0.177 -0.767,0.351 -1.186,0.519 -0.012,0.005 -0.024,0.009 -0.036,0.014 -2.271,0.907 -5.176,1.67 -8.561,2.17 -0.017,0.002 -0.034,0.004 -0.051,0.007 -0.658,0.097 -1.333,0.183 -2.026,0.259 -0.113,0.012 -0.232,0.02 -0.346,0.032 -0.605,0.063 -1.217,0.121 -1.847,0.167 -0.288,0.021 -0.59,0.031 -0.883,0.049 -0.474,0.028 -0.943,0.059 -1.429,0.076 C 29.137,40.984 28.327,41 27.5,41 26.673,41 25.863,40.984 25.068,40.956 24.582,40.939 24.113,40.907 23.639,40.88 23.346,40.863 23.044,40.852 22.756,40.831 22.126,40.785 21.514,40.727 20.909,40.664 20.795,40.652 20.676,40.644 20.563,40.632 19.87,40.556 19.195,40.469 18.537,40.373 18.52,40.371 18.503,40.369 18.486,40.366 15.101,39.866 12.196,39.103 9.925,38.196 9.913,38.192 9.901,38.187 9.889,38.182 9.47,38.014 9.077,37.84 8.703,37.663 8.66,37.642 8.614,37.622 8.571,37.602 8.235,37.44 7.924,37.274 7.626,37.105 7.556,37.065 7.482,37.026 7.414,36.985 7.155,36.833 6.919,36.678 6.693,36.522 6.607,36.462 6.518,36.403 6.436,36.342 6.245,36.201 6.074,36.059 5.91,35.916 5.821,35.838 5.731,35.76 5.65,35.68 5.516,35.55 5.398,35.42 5.287,35.288 5.209,35.196 5.134,35.104 5.068,35.011 4.98,34.888 4.905,34.765 4.837,34.642 4.783,34.543 4.735,34.444 4.694,34.345 4.645,34.224 4.606,34.103 4.578,33.982 4.541,33.823 4.5,33.661 4.5,33.5 4.5,33.387 4.513,33.274 4.531,33.162 4.556,33.011 4.542,32.86 4.5,32.717 v -7.424 c 0.028,0.026 0.063,0.051 0.092,0.077 0.218,0.192 0.44,0.383 0.69,0.567 C 9.049,28.786 16.582,31 27.5,31 c 10.872,0 18.386,-2.196 22.169,-5.028 0.302,-0.22 0.574,-0.447 0.83,-0.678 L 50.5,25.293 v 7.424 c -0.042,0.143 -0.056,0.294 -0.031,0.445 0.019,0.112 0.031,0.225 0.031,0.338 0,0.161 -0.041,0.323 -0.079,0.485 z M 50.5,13.293 v 7.424 c -0.042,0.143 -0.056,0.294 -0.031,0.445 0.019,0.112 0.031,0.225 0.031,0.338 0,0.161 -0.041,0.323 -0.079,0.485 -0.028,0.121 -0.067,0.241 -0.116,0.363 -0.04,0.099 -0.089,0.198 -0.143,0.297 -0.067,0.123 -0.142,0.246 -0.231,0.369 -0.066,0.093 -0.141,0.185 -0.219,0.277 -0.111,0.131 -0.229,0.262 -0.363,0.392 -0.081,0.079 -0.17,0.157 -0.26,0.236 -0.164,0.143 -0.335,0.285 -0.526,0.426 -0.082,0.061 -0.17,0.12 -0.257,0.18 -0.226,0.156 -0.462,0.311 -0.721,0.463 -0.068,0.041 -0.141,0.08 -0.212,0.12 -0.298,0.168 -0.609,0.335 -0.945,0.497 -0.043,0.021 -0.088,0.041 -0.132,0.061 -0.375,0.177 -0.767,0.351 -1.186,0.519 -0.012,0.005 -0.024,0.009 -0.036,0.014 -2.271,0.907 -5.176,1.67 -8.561,2.17 -0.017,0.002 -0.034,0.004 -0.051,0.007 -0.658,0.097 -1.333,0.183 -2.026,0.259 -0.113,0.012 -0.232,0.02 -0.346,0.032 -0.605,0.063 -1.217,0.121 -1.847,0.167 -0.288,0.021 -0.59,0.031 -0.883,0.049 -0.474,0.028 -0.943,0.059 -1.429,0.076 C 29.137,28.984 28.327,29 27.5,29 26.673,29 25.863,28.984 25.068,28.956 24.582,28.939 24.113,28.907 23.639,28.88 23.346,28.863 23.044,28.852 22.756,28.831 22.126,28.785 21.514,28.727 20.909,28.664 20.795,28.652 20.676,28.644 20.563,28.632 19.87,28.556 19.195,28.469 18.537,28.373 18.52,28.371 18.503,28.369 18.486,28.366 15.101,27.866 12.196,27.103 9.925,26.196 9.913,26.192 9.901,26.187 9.889,26.182 9.47,26.014 9.077,25.84 8.703,25.663 8.66,25.642 8.614,25.622 8.571,25.602 8.235,25.44 7.924,25.274 7.626,25.105 7.556,25.065 7.482,25.026 7.414,24.985 7.155,24.833 6.919,24.678 6.693,24.522 6.607,24.462 6.518,24.403 6.436,24.342 6.245,24.201 6.074,24.059 5.91,23.916 5.821,23.838 5.731,23.76 5.65,23.68 5.516,23.55 5.398,23.42 5.287,23.288 5.209,23.196 5.134,23.104 5.068,23.011 4.98,22.888 4.905,22.765 4.837,22.642 4.783,22.543 4.735,22.444 4.694,22.345 4.645,22.224 4.606,22.103 4.578,21.982 4.541,21.823 4.5,21.661 4.5,21.5 4.5,21.387 4.513,21.274 4.531,21.162 4.556,21.011 4.542,20.86 4.5,20.717 v -7.424 c 0.12,0.109 0.257,0.216 0.387,0.324 0.072,0.06 0.139,0.12 0.215,0.18 0.3,0.236 0.624,0.469 0.975,0.696 0.073,0.047 0.155,0.093 0.231,0.14 0.294,0.183 0.605,0.362 0.932,0.538 0.121,0.065 0.242,0.129 0.367,0.193 0.365,0.186 0.748,0.367 1.151,0.542 0.066,0.029 0.126,0.059 0.193,0.087 0.469,0.199 0.967,0.389 1.485,0.573 0.143,0.051 0.293,0.099 0.44,0.149 0.412,0.139 0.838,0.272 1.279,0.401 0.159,0.046 0.315,0.094 0.478,0.138 0.585,0.162 1.189,0.316 1.823,0.458 0.087,0.02 0.181,0.036 0.269,0.055 0.559,0.122 1.139,0.235 1.735,0.341 0.202,0.036 0.407,0.07 0.613,0.104 0.567,0.093 1.151,0.178 1.75,0.256 0.154,0.02 0.301,0.043 0.457,0.062 0.744,0.09 1.514,0.167 2.305,0.233 0.195,0.016 0.398,0.028 0.596,0.042 0.633,0.046 1.28,0.084 1.942,0.114 0.241,0.011 0.481,0.022 0.727,0.031 0.862,0.029 1.74,0.05 2.65,0.05 0.91,0 1.788,-0.021 2.65,-0.05 0.245,-0.009 0.485,-0.02 0.727,-0.031 0.662,-0.03 1.309,-0.068 1.942,-0.114 0.198,-0.015 0.4,-0.026 0.596,-0.042 0.791,-0.065 1.561,-0.143 2.305,-0.233 0.156,-0.019 0.303,-0.042 0.457,-0.062 0.599,-0.078 1.182,-0.163 1.75,-0.256 0.206,-0.034 0.411,-0.068 0.613,-0.104 0.596,-0.106 1.176,-0.219 1.735,-0.341 0.088,-0.019 0.182,-0.036 0.269,-0.055 0.634,-0.142 1.238,-0.297 1.823,-0.458 0.163,-0.045 0.319,-0.092 0.478,-0.138 0.441,-0.129 0.867,-0.262 1.279,-0.401 0.147,-0.05 0.297,-0.098 0.44,-0.149 0.518,-0.184 1.017,-0.374 1.485,-0.573 0.067,-0.028 0.127,-0.058 0.193,-0.087 0.403,-0.176 0.786,-0.356 1.151,-0.542 0.125,-0.064 0.247,-0.128 0.367,-0.193 0.327,-0.175 0.638,-0.354 0.932,-0.538 0.076,-0.047 0.158,-0.093 0.231,-0.14 0.351,-0.227 0.675,-0.459 0.975,-0.696 0.075,-0.06 0.142,-0.12 0.215,-0.18 0.13,-0.108 0.267,-0.215 0.387,-0.324 z M 27.5,2 c 13.555,0 23,3.952 23,7.5 0,3.548 -9.445,7.5 -23,7.5 C 13.945,17 4.5,13.048 4.5,9.5 4.5,5.952 13.945,2 27.5,2 Z m 23,43.703 c -0.014,0.044 -0.024,0.089 -0.032,0.135 C 49.901,49.297 40.536,53 27.5,53 14.464,53 5.099,49.297 4.532,45.838 4.524,45.793 4.513,45.749 4.5,45.707 v -8.414 c 0.028,0.026 0.063,0.051 0.092,0.077 0.218,0.192 0.44,0.383 0.69,0.567 C 9.049,40.786 16.582,43 27.5,43 c 10.872,0 18.386,-2.196 22.169,-5.028 0.302,-0.22 0.574,-0.447 0.83,-0.678 L 50.5,37.293 Z"
     id="path51215" /><g
     id="g51217">
</g><g
     id="g51219">
</g><g
     id="g51221">
</g><g
     id="g51223">
</g><g
     id="g51225">
</g><g
     id="g51227">
</g><g
     id="g51229">
</g><g
     id="g51231">
</g><g
     id="g51233">
</g><g
     id="g51235">
</g><g
     id="g51237">
</g><g
     id="g51239">
</g><g
     id="g51241">
</g><g
     id="g51243">
</g><g
     id="g51245">
</g></g><g
   id="g51492"
   transform="matrix(1.2586797,0,0,1.0800788,300.02313,107.27277)"
   style="fill:#241f1c"><g
     id="g51435"
     style="fill:#241f1c">
	<path
   style="fill:#241f1c"
   d="m 14.627,15.954 c -5.494,0 -10.098,-1.614 -11.355,-3.79 -0.221,0.383 -0.35,0.781 -0.35,1.194 v 3.561 c 0,2.751 5.242,4.983 11.705,4.983 6.467,0 11.711,-2.232 11.711,-4.983 v -3.561 c 0,-0.413 -0.131,-0.811 -0.354,-1.194 -1.257,2.175 -5.857,3.79 -11.357,3.79 z"
   id="path51427" />
	<path
   style="fill:#241f1c"
   d="m 14.627,23.31 c -5.494,0 -10.098,-1.616 -11.355,-3.788 -0.221,0.381 -0.35,0.779 -0.35,1.191 v 3.564 c 0,2.752 5.242,4.983 11.705,4.983 6.467,0 11.711,-2.23 11.711,-4.983 v -3.564 c 0,-0.412 -0.131,-0.81 -0.354,-1.19 -1.257,2.171 -5.857,3.787 -11.357,3.787 z"
   id="path51429" />
	<path
   style="fill:#241f1c"
   d="M 26.018,5.042 C 25.788,7.058 20.786,8.671 14.627,8.671 8.471,8.671 3.469,7.058 3.24,5.043 3.039,5.409 2.922,5.791 2.922,6.184 v 3.561 c 0,2.752 5.242,4.983 11.705,4.983 6.467,0 11.711,-2.23 11.711,-4.983 V 6.184 c 0,-0.393 -0.119,-0.775 -0.32,-1.142 z"
   id="path51431" />
	<path
   style="fill:#241f1c"
   d="m 14.627,7.541 c 6.303,0 11.41,-1.687 11.41,-3.771 C 26.037,1.688 20.93,0 14.627,0 8.328,0.001 3.219,1.689 3.219,3.771 c 0,2.083 5.109,3.77 11.408,3.77 z"
   id="path51433" />
</g><g
     id="g51437"
     style="fill:#241f1c">
</g><g
     id="g51439"
     style="fill:#241f1c">
</g><g
     id="g51441"
     style="fill:#241f1c">
</g><g
     id="g51443"
     style="fill:#241f1c">
</g><g
     id="g51445"
     style="fill:#241f1c">
</g><g
     id="g51447"
     style="fill:#241f1c">
</g><g
     id="g51449"
     style="fill:#241f1c">
</g><g
     id="g51451"
     style="fill:#241f1c">
</g><g
     id="g51453"
     style="fill:#241f1c">
</g><g
     id="g51455"
     style="fill:#241f1c">
</g><g
     id="g51457"
     style="fill:#241f1c">
</g><g
     id="g51459"
     style="fill:#241f1c">
</g><g
     id="g51461"
     style="fill:#241f1c">
</g><g
     id="g51463"
     style="fill:#241f1c">
</g><g
     id="g51465"
     style="fill:#241f1c">
</g></g><g
   id="g51721"
   transform="matrix(0.58379899,0,0,0.55701867,497.97697,107.34765)"
   style="fill:#000080"><g
     id="g51663"
     style="fill:#000080">
	<path
   d="m 52.524,45.537 c -0.429,-4.107 -3.852,-7.332 -7.953,-7.332 -2.564,0 -4.984,1.286 -6.48,3.402 -0.291,-0.051 -0.586,-0.076 -0.883,-0.076 -2.32,0 -4.381,1.577 -5.066,3.813 -1.907,1.131 -3.116,3.241 -3.116,5.502 0,3.507 2.785,6.359 6.208,6.359 h 10.774 c 0.06,0 0.118,-0.004 0.171,-0.008 0.062,0.004 0.124,0.008 0.188,0.008 h 4.31 c 3.225,0 5.849,-2.687 5.849,-5.989 -0.001,-2.6 -1.642,-4.874 -4.002,-5.679 z m -1.847,9.668 -4.352,-0.003 -0.17,-0.006 -10.922,0.009 c -2.32,0 -4.208,-1.956 -4.208,-4.359 0,-1.665 0.949,-3.21 2.417,-3.935 l 0.435,-0.214 0.102,-0.475 c 0.331,-1.56 1.689,-2.691 3.229,-2.691 0.345,0 0.688,0.057 1.02,0.168 l 0.777,0.261 0.408,-0.711 c 1.096,-1.906 3.024,-3.044 5.158,-3.044 3.265,0 5.955,2.747 5.998,6.123 l 0.011,0.813 0.799,0.155 c 1.823,0.354 3.146,2.002 3.146,3.919 0,2.2 -1.726,3.99 -3.848,3.99 z"
   id="path51653"
   style="fill:#000080" />
	<path
   d="m 29.875,43.044 c 1.363,-2.618 3.96,-4.337 6.872,-4.5 2.066,-2.127 4.894,-3.339 7.824,-3.339 2.531,0 4.916,0.916 6.818,2.455 0.095,-0.087 0.203,-0.173 0.287,-0.26 v -1.289 -0.5 -0.5 V 28 c -1.318,0.905 -3.028,1.697 -5.025,2.367 -4.21,1.472 -10.048,2.502 -17.369,2.703 -0.87,0.027 -1.74,0.041 -2.606,0.041 -0.869,0 -1.742,-0.014 -2.614,-0.042 C 16.721,32.868 10.871,31.831 6.659,30.352 4.68,29.685 2.984,28.899 1.676,28 v 7.111 0.5 0.5 1.289 c 2.846,2.971 12.394,5.711 25,5.711 1.093,0 2.154,-0.028 3.199,-0.067 z"
   id="path51655"
   style="fill:#000080" />
	<path
   d="m 24.311,29.965 c 0.326,0.009 0.651,0.018 0.982,0.023 0.456,0.008 0.917,0.012 1.383,0.012 0.466,0 0.926,-0.004 1.383,-0.011 0.33,-0.005 0.656,-0.015 0.982,-0.023 0.116,-0.003 0.234,-0.005 0.349,-0.008 11.253,-0.359 19.648,-2.915 22.286,-5.668 V 23 22.5 22 14.889 C 46.808,18.232 36.52,20 26.676,20 16.832,20 6.543,18.232 1.676,14.889 V 22 22.5 23 24.289 c 2.638,2.754 11.033,5.31 22.286,5.668 0.115,0.003 0.233,0.005 0.349,0.008 z"
   id="path51657"
   style="fill:#000080" />
	<path
   d="M 51.676,11.306 V 9.5 9 C 51.676,8.832 51.62,8.681 51.541,8.542 50.418,4.241 41.791,0 26.676,0 11.598,0 2.979,4.22 1.822,8.51 1.737,8.657 1.676,8.818 1.676,9 v 0.5 1.806 c 2.836,2.961 12.316,5.694 25,5.694 12.684,0 22.163,-2.733 25,-5.694 z"
   id="path51659"
   style="fill:#000080" />
	<path
   d="m 26.025,50.845 c 0,-1.652 0.451,-3.249 1.249,-4.651 -0.201,10e-4 -0.395,0.007 -0.599,0.007 -12.346,0 -20.866,-2.29 -25,-5.201 v 8.201 c 0,0.162 0.043,0.315 0.117,0.451 1.181,4.895 11.747,8.549 24.883,8.549 0.95,0 1.881,-0.024 2.801,-0.062 -2.1,-1.717 -3.451,-4.347 -3.451,-7.294 z"
   id="path51661"
   style="fill:#000080" />
</g><g
     id="g51665"
     style="fill:#000080">
</g><g
     id="g51667"
     style="fill:#000080">
</g><g
     id="g51669"
     style="fill:#000080">
</g><g
     id="g51671"
     style="fill:#000080">
</g><g
     id="g51673"
     style="fill:#000080">
</g><g
     id="g51675"
     style="fill:#000080">
</g><g
     id="g51677"
     style="fill:#000080">
</g><g
     id="g51679"
     style="fill:#000080">
</g><g
     id="g51681"
     style="fill:#000080">
</g><g
     id="g51683"
     style="fill:#000080">
</g><g
     id="g51685"
     style="fill:#000080">
</g><g
     id="g51687"
     style="fill:#000080">
</g><g
     id="g51689"
     style="fill:#000080">
</g><g
     id="g51691"
     style="fill:#000080">
</g><g
     id="g51693"
     style="fill:#000080">
</g></g></svg>
